<svg xmlns="http://www.w3.org/2000/svg" width="25.375" height="22.781" viewBox="0 0 25.375 22.781">
  <metadata><?xpacket begin="﻿" id="W5M0MpCehiHzreSzNTczkc9d"?>
<x:xmpmeta xmlns:x="adobe:ns:meta/" x:xmptk="Adobe XMP Core 5.6-c138 79.159824, 2016/09/14-01:09:01        ">
   <rdf:RDF xmlns:rdf="http://www.w3.org/1999/02/22-rdf-syntax-ns#">
      <rdf:Description rdf:about=""/>
   </rdf:RDF>
</x:xmpmeta>
                                                                                                    
                                                                                                    
                                                                                                    
                                                                                                    
                                                                                                    
                                                                                                    
                                                                                                    
                                                                                                    
                                                                                                    
                                                                                                    
                                                                                                    
                                                                                                    
                                                                                                    
                                                                                                    
                                                                                                    
                                                                                                    
                                                                                                    
                                                                                                    
                                                                                                    
                                                                                                    
                           
<?xpacket end="w"?></metadata>
<defs>
    <style>
      .cls-1 {
        fill: #e94c27;
        fill-rule: evenodd;
      }
    </style>
  </defs>
  <path id="i-load" class="cls-1" d="M445.764,326.577l-1.35,3.191a0.985,0.985,0,0,1-1.227.491L440,328.909a0.935,0.935,0,1,1,.737-1.718l0.868,0.365a9.39,9.39,0,0,0-17.716,1.732,1.023,1.023,0,0,1-1.2.6,0.862,0.862,0,0,1-.636-1.04,11.283,11.283,0,0,1,21.445-1.693l0.553-1.313A0.935,0.935,0,1,1,445.764,326.577Zm-22.658,6.136,3.243,1.372a0.95,0.95,0,0,1-.748,1.747l-0.974-.41a9.392,9.392,0,0,0,17.734-1.7,1.021,1.021,0,0,1,1.2-.6,0.863,0.863,0,0,1,.636,1.041,11.283,11.283,0,0,1-21.428,1.737l-0.536,1.239a0.938,0.938,0,0,1-.873.624,0.783,0.783,0,0,1-.374-0.063,0.94,0.94,0,0,1-.5-1.247l1.372-3.244A0.941,0.941,0,0,1,423.106,332.713Z" transform="translate(-420.438 -320.125)"/>
</svg>
