<svg xmlns="http://www.w3.org/2000/svg" width="13.969" height="14" viewBox="0 0 13.969 14">
  <metadata><?xpacket begin="﻿" id="W5M0MpCehiHzreSzNTczkc9d"?>
<x:xmpmeta xmlns:x="adobe:ns:meta/" x:xmptk="Adobe XMP Core 5.6-c138 79.159824, 2016/09/14-01:09:01        ">
   <rdf:RDF xmlns:rdf="http://www.w3.org/1999/02/22-rdf-syntax-ns#">
      <rdf:Description rdf:about=""/>
   </rdf:RDF>
</x:xmpmeta>
                                                                                                    
                                                                                                    
                                                                                                    
                                                                                                    
                                                                                                    
                                                                                                    
                                                                                                    
                                                                                                    
                                                                                                    
                                                                                                    
                                                                                                    
                                                                                                    
                                                                                                    
                                                                                                    
                                                                                                    
                                                                                                    
                                                                                                    
                                                                                                    
                                                                                                    
                                                                                                    
                           
<?xpacket end="w"?></metadata>
<defs>
    <style>
      .cls-1 {
        fill: #fff;
        fill-rule: evenodd;
      }
    </style>
  </defs>
  <path id="i-tag" class="cls-1" d="M221.5,132.021h-5.77a0.506,0.506,0,0,0-.358.148l-7.212,7.213a0.508,0.508,0,0,0,0,.718l5.769,5.77a0.507,0.507,0,0,0,.718,0l7.212-7.213a0.506,0.506,0,0,0,.148-0.358v-5.771A0.506,0.506,0,0,0,221.5,132.021ZM221,138.088l-6.705,6.707-5.053-5.054,6.705-6.706H221v5.053h0Zm-3.317-.209a1.527,1.527,0,1,0-1.079-.447A1.518,1.518,0,0,0,217.678,137.879Zm-0.362-1.89a0.513,0.513,0,0,1,.725,0,0.513,0.513,0,0,1-.363.876,0.507,0.507,0,0,1-.362-0.15A0.514,0.514,0,0,1,217.316,135.989Z" transform="translate(-208.031 -132.031)"/>
</svg>
