<svg xmlns="http://www.w3.org/2000/svg" width="19.12" height="19.12" viewBox="0 0 19.12 19.12">
  <metadata><?xpacket begin="﻿" id="W5M0MpCehiHzreSzNTczkc9d"?>
<x:xmpmeta xmlns:x="adobe:ns:meta/" x:xmptk="Adobe XMP Core 5.6-c138 79.159824, 2016/09/14-01:09:01        ">
   <rdf:RDF xmlns:rdf="http://www.w3.org/1999/02/22-rdf-syntax-ns#">
      <rdf:Description rdf:about=""/>
   </rdf:RDF>
</x:xmpmeta>
                                                                                                    
                                                                                                    
                                                                                                    
                                                                                                    
                                                                                                    
                                                                                                    
                                                                                                    
                                                                                                    
                                                                                                    
                                                                                                    
                                                                                                    
                                                                                                    
                                                                                                    
                                                                                                    
                                                                                                    
                                                                                                    
                                                                                                    
                                                                                                    
                                                                                                    
                                                                                                    
                           
<?xpacket end="w"?></metadata>
<defs>
    <style>
      .cls-1 {
        fill: #fff;
        fill-rule: evenodd;
      }
    </style>
  </defs>
  <path id="ins" class="cls-1" d="M1315.32,9051.37h-8.58a5.288,5.288,0,0,0-5.28,5.28v8.58a5.288,5.288,0,0,0,5.28,5.28h8.58a5.29,5.29,0,0,0,5.29-5.28v-8.58A5.29,5.29,0,0,0,1315.32,9051.37Zm3.44,13.78a3.517,3.517,0,0,1-3.52,3.51h-8.42a3.508,3.508,0,0,1-3.51-3.51v-8.42a3.517,3.517,0,0,1,3.51-3.52h8.42a3.525,3.525,0,0,1,3.52,3.52v8.42h0Zm-7.77-8.99a4.78,4.78,0,1,0,4.79,4.78A4.786,4.786,0,0,0,1310.99,9056.16Zm0,7.92a3.14,3.14,0,1,1,3.14-3.14A3.137,3.137,0,0,1,1310.99,9064.08Zm5.18-9.51a1.266,1.266,0,0,0-.88.36,1.256,1.256,0,0,0,0,1.76,1.277,1.277,0,0,0,.88.37,1.258,1.258,0,0,0,.88-0.37,1.231,1.231,0,0,0,0-1.76A1.249,1.249,0,0,0,1316.17,9054.57Z" transform="translate(-1301.47 -9051.38)"/>
</svg>
