<svg xmlns="http://www.w3.org/2000/svg" width="10" height="10" viewBox="0 0 10 10">
  <metadata><?xpacket begin="﻿" id="W5M0MpCehiHzreSzNTczkc9d"?>
<x:xmpmeta xmlns:x="adobe:ns:meta/" x:xmptk="Adobe XMP Core 5.6-c138 79.159824, 2016/09/14-01:09:01        ">
   <rdf:RDF xmlns:rdf="http://www.w3.org/1999/02/22-rdf-syntax-ns#">
      <rdf:Description rdf:about=""/>
   </rdf:RDF>
</x:xmpmeta>
                                                                                                    
                                                                                                    
                                                                                                    
                                                                                                    
                                                                                                    
                                                                                                    
                                                                                                    
                                                                                                    
                                                                                                    
                                                                                                    
                                                                                                    
                                                                                                    
                                                                                                    
                                                                                                    
                                                                                                    
                                                                                                    
                                                                                                    
                                                                                                    
                                                                                                    
                                                                                                    
                           
<?xpacket end="w"?></metadata>
<defs>
    <style>
      .cls-1 {
        fill: #8f8f8f;
        fill-rule: evenodd;
      }
    </style>
  </defs>
  <path id="i-inf" class="cls-1" d="M516,438a5,5,0,1,0,5,5A5.006,5.006,0,0,0,516,438Zm0,9.091A4.091,4.091,0,1,1,520.091,443,4.1,4.1,0,0,1,516,447.091Zm0-7.032a0.606,0.606,0,1,0,.606.606A0.607,0.607,0,0,0,516,440.059Zm0,2.183a0.513,0.513,0,0,0-.517.455v2.727a0.521,0.521,0,0,0,1.034,0V442.7A0.513,0.513,0,0,0,516,442.242Z" transform="translate(-511 -438)"/>
</svg>
