<svg xmlns="http://www.w3.org/2000/svg" width="11.188" height="13.97" viewBox="0 0 11.188 13.97">
  <metadata><?xpacket begin="﻿" id="W5M0MpCehiHzreSzNTczkc9d"?>
<x:xmpmeta xmlns:x="adobe:ns:meta/" x:xmptk="Adobe XMP Core 5.6-c138 79.159824, 2016/09/14-01:09:01        ">
   <rdf:RDF xmlns:rdf="http://www.w3.org/1999/02/22-rdf-syntax-ns#">
      <rdf:Description rdf:about=""/>
   </rdf:RDF>
</x:xmpmeta>
                                                                                                    
                                                                                                    
                                                                                                    
                                                                                                    
                                                                                                    
                                                                                                    
                                                                                                    
                                                                                                    
                                                                                                    
                                                                                                    
                                                                                                    
                                                                                                    
                                                                                                    
                                                                                                    
                                                                                                    
                                                                                                    
                                                                                                    
                                                                                                    
                                                                                                    
                                                                                                    
                           
<?xpacket end="w"?></metadata>
<defs>
    <style>
      .cls-1 {
        fill: #8f8f8f;
        fill-rule: evenodd;
      }
    </style>
  </defs>
  <path id="i-point-min" class="cls-1" d="M232.994,8618.99a5.574,5.574,0,0,0-5.581,5.56,5.391,5.391,0,0,0,.1,1.04c0,0.02.015,0.09,0.038,0.19a5.782,5.782,0,0,0,.374,1.1,15.711,15.711,0,0,0,4.825,6.01,0.387,0.387,0,0,0,.248.09,0.391,0.391,0,0,0,.248-0.09,15.746,15.746,0,0,0,4.824-6.01,5.554,5.554,0,0,0,.374-1.1c0.023-.1.035-0.17,0.038-0.19A5.556,5.556,0,0,0,232.994,8618.99Zm4.705,6.47,0,0.01c0,0.02-.012.06-0.026,0.13v0.01a4.546,4.546,0,0,1-.324.94l-0.006.02a14.728,14.728,0,0,1-4.346,5.51,14.707,14.707,0,0,1-4.346-5.51l-0.006-.02a4.929,4.929,0,0,1-.324-0.94v-0.01a0.91,0.91,0,0,1-.026-0.13,0.08,0.08,0,0,1,0-.02,4.653,4.653,0,0,1-.088-0.9A4.793,4.793,0,1,1,237.7,8625.46Zm-4.705-4.38a3.53,3.53,0,1,0,3.543,3.53A3.539,3.539,0,0,0,232.994,8621.08Zm0,6.28a2.75,2.75,0,1,1,2.755-2.75A2.759,2.759,0,0,1,232.994,8627.36Z" transform="translate(-227.406 -8619)"/>
</svg>
